^T:\MSARGENT\MSARGENT_LAB01\DLGBOX\DLGBOX.CPP
T:\MSARGENT\MSARGENT_LAB01\DLGBOX\DEBUG\VC141.PDB
T:\MSARGENT\MSARGENT_LAB01\DLGBOX\DEBUG\VC141.IDB
T:\MSARGENT\MSARGENT_LAB01\DLGBOX\DEBUG\DLGBOX.OBJ
^T:\MSARGENT\MSARGENT_LAB02\DLGBOX\DLGBOX.CPP
T:\MSARGENT\MSARGENT_LAB02\DLGBOX\DEBUG\VC141.PDB
T:\MSARGENT\MSARGENT_LAB02\DLGBOX\DEBUG\VC141.IDB
T:\MSARGENT\MSARGENT_LAB02\DLGBOX\DEBUG\DLGBOX.OBJ
