^T:\MSARGENT\MSARGENT_LAB01\DLGBOX\DEBUG\DLGBOX.OBJ|T:\MSARGENT\MSARGENT_LAB01\DLGBOX\DEBUG\RESOURCE.RES
T:\MSARGENT\MSARGENT_LAB01\DEBUG\DLGBOX.ILK
T:\MSARGENT\MSARGENT_LAB01\DEBUG\DLGBOX.EXE
T:\MSARGENT\MSARGENT_LAB01\DEBUG\DLGBOX.PDB
^T:\MSARGENT\MSARGENT_LAB02\DLGBOX\DEBUG\DLGBOX.OBJ|T:\MSARGENT\MSARGENT_LAB02\DLGBOX\DEBUG\RESOURCE.RES
T:\MSARGENT\MSARGENT_LAB02\DEBUG\DLGBOX.ILK
T:\MSARGENT\MSARGENT_LAB02\DEBUG\DLGBOX.EXE
T:\MSARGENT\MSARGENT_LAB02\DEBUG\DLGBOX.PDB
