^T:\MSARGENT\DLGBOX\DLGBOX\RESOURCE.RC
/l"0x0409" /nologo /fo"DEBUG\RESOURCE.RES"   T:\MSARGENT\DLGBOX\DLGBOX\RESOURCE.RC
^D:\CP240\DLGBOX\DLGBOX\RESOURCE.RC
/l"0x0409" /nologo /fo"DEBUG\RESOURCE.RES"   D:\CP240\DLGBOX\DLGBOX\RESOURCE.RC
^C:\USERS\MICHAEL\DESKTOP\CP240\DLGBOX\DLGBOX\RESOURCE.RC
/l"0x0409" /nologo /fo"DEBUG\RESOURCE.RES"   C:\USERS\MICHAEL\DESKTOP\CP240\DLGBOX\DLGBOX\RESOURCE.RC
^C:\USERS\NHTI\DESKTOP\DLGBOX\DLGBOX\RESOURCE.RC
/l"0x0409" /nologo /fo"DEBUG\RESOURCE.RES"   C:\USERS\NHTI\DESKTOP\DLGBOX\DLGBOX\RESOURCE.RC
^C:\USERS\MICHAEL\DESKTOP\CP240\MSARGENT_LAB01\DLGBOX\RESOURCE.RC
/l"0x0409" /nologo /fo"DEBUG\RESOURCE.RES"   C:\USERS\MICHAEL\DESKTOP\CP240\MSARGENT_LAB01\DLGBOX\RESOURCE.RC
^C:\USERS\MICHAEL\DESKTOP\CP240\MSARGENT_LABS\MSARGENT_LAB01\DLGBOX\RESOURCE.RC
/l"0x0409" /nologo /fo"DEBUG\RESOURCE.RES"   C:\USERS\MICHAEL\DESKTOP\CP240\MSARGENT_LABS\MSARGENT_LAB01\DLGBOX\RESOURCE.RC
^D:\CP240\MSARGENT_LAB01\DLGBOX\RESOURCE.RC
/l"0x0409" /nologo /fo"DEBUG\RESOURCE.RES"   D:\CP240\MSARGENT_LAB01\DLGBOX\RESOURCE.RC
^T:\MSARGENT\MSARGENT_LAB01\DLGBOX\RESOURCE.RC
/l"0x0409" /nologo /fo"DEBUG\RESOURCE.RES"   T:\MSARGENT\MSARGENT_LAB01\DLGBOX\RESOURCE.RC
^T:\MSARGENT\MSARGENT_LAB02\DLGBOX\RESOURCE.RC
/l"0x0409" /nologo /fo"DEBUG\RESOURCE.RES"   T:\MSARGENT\MSARGENT_LAB02\DLGBOX\RESOURCE.RC
