^C:\USERS\MICHAEL\DESKTOP\CP240\DLGBOX\DLGBOX\DEBUG\DLGBOX.OBJ|C:\USERS\MICHAEL\DESKTOP\CP240\DLGBOX\DLGBOX\DEBUG\RESOURCE.RES
C:\USERS\MICHAEL\DESKTOP\CP240\DLGBOX\DEBUG\DLGBOX.EXE
C:\USERS\MICHAEL\DESKTOP\CP240\DLGBOX\DEBUG\DLGBOX.ILK
C:\USERS\MICHAEL\DESKTOP\CP240\DLGBOX\DEBUG\DLGBOX.PDB
