^T:\MSARGENT\DLGBOX\DLGBOX\RESOURCE.RC
/l"0x0409" /nologo /fo"DEBUG\RESOURCE.RES"   T:\MSARGENT\DLGBOX\DLGBOX\RESOURCE.RC
^D:\CP240\DLGBOX\DLGBOX\RESOURCE.RC
/l"0x0409" /nologo /fo"DEBUG\RESOURCE.RES"   D:\CP240\DLGBOX\DLGBOX\RESOURCE.RC
^C:\USERS\MICHAEL\DESKTOP\CP240\DLGBOX\DLGBOX\RESOURCE.RC
/l"0x0409" /nologo /fo"DEBUG\RESOURCE.RES"   C:\USERS\MICHAEL\DESKTOP\CP240\DLGBOX\DLGBOX\RESOURCE.RC
^C:\USERS\NHTI\DESKTOP\DLGBOX\DLGBOX\RESOURCE.RC
/l"0x0409" /nologo /fo"DEBUG\RESOURCE.RES"   C:\USERS\NHTI\DESKTOP\DLGBOX\DLGBOX\RESOURCE.RC
