^T:\MSARGENT\DLGBOX\DLGBOX\DEBUG\DLGBOX.OBJ|T:\MSARGENT\DLGBOX\DLGBOX\DEBUG\RESOURCE.RES
/OUT:"T:\MSARGENT\DLGBOX\DEBUG\DLGBOX.EXE" /INCREMENTAL /NOLOGO KERNEL32.LIB USER32.LIB GDI32.LIB WINSPOOL.LIB COMDLG32.LIB ADVAPI32.LIB SHELL32.LIB OLE32.LIB OLEAUT32.LIB UUID.LIB ODBC32.LIB ODBCCP32.LIB /MANIFEST /MANIFESTUAC:"level='asInvoker' uiAccess='false'" /manifest:embed /DEBUG:FASTLINK /PDB:"T:\MSARGENT\DLGBOX\DEBUG\DLGBOX.PDB" /SUBSYSTEM:WINDOWS /TLBID:1 /DYNAMICBASE /NXCOMPAT /IMPLIB:"T:\MSARGENT\DLGBOX\DEBUG\DLGBOX.LIB" /MACHINE:X86 DEBUG\RESOURCE.RESDEBUG\DLGBOX.OBJ
^D:\CP240\DLGBOX\DLGBOX\DEBUG\DLGBOX.OBJ|D:\CP240\DLGBOX\DLGBOX\DEBUG\RESOURCE.RES
/OUT:"D:\CP240\DLGBOX\DEBUG\DLGBOX.EXE" /INCREMENTAL /NOLOGO KERNEL32.LIB USER32.LIB GDI32.LIB WINSPOOL.LIB COMDLG32.LIB ADVAPI32.LIB SHELL32.LIB OLE32.LIB OLEAUT32.LIB UUID.LIB ODBC32.LIB ODBCCP32.LIB /MANIFEST /MANIFESTUAC:"level='asInvoker' uiAccess='false'" /manifest:embed /DEBUG:FASTLINK /PDB:"D:\CP240\DLGBOX\DEBUG\DLGBOX.PDB" /SUBSYSTEM:WINDOWS /TLBID:1 /DYNAMICBASE /NXCOMPAT /IMPLIB:"D:\CP240\DLGBOX\DEBUG\DLGBOX.LIB" /MACHINE:X86 DEBUG\RESOURCE.RESDEBUG\DLGBOX.OBJ
^C:\USERS\NHTI\DESKTOP\DLGBOX\DLGBOX\DEBUG\DLGBOX.OBJ|C:\USERS\NHTI\DESKTOP\DLGBOX\DLGBOX\DEBUG\RESOURCE.RES
/OUT:"C:\USERS\NHTI\DESKTOP\DLGBOX\DEBUG\DLGBOX.EXE" /INCREMENTAL /NOLOGO KERNEL32.LIB USER32.LIB GDI32.LIB WINSPOOL.LIB COMDLG32.LIB ADVAPI32.LIB SHELL32.LIB OLE32.LIB OLEAUT32.LIB UUID.LIB ODBC32.LIB ODBCCP32.LIB /MANIFEST /MANIFESTUAC:"level='asInvoker' uiAccess='false'" /manifest:embed /DEBUG:FASTLINK /PDB:"C:\USERS\NHTI\DESKTOP\DLGBOX\DEBUG\DLGBOX.PDB" /SUBSYSTEM:WINDOWS /TLBID:1 /DYNAMICBASE /NXCOMPAT /IMPLIB:"C:\USERS\NHTI\DESKTOP\DLGBOX\DEBUG\DLGBOX.LIB" /MACHINE:X86 DEBUG\RESOURCE.RESDEBUG\DLGBOX.OBJ
^C:\USERS\MICHAEL\DESKTOP\CP240\DLGBOX\DLGBOX\DEBUG\DLGBOX.OBJ|C:\USERS\MICHAEL\DESKTOP\CP240\DLGBOX\DLGBOX\DEBUG\RESOURCE.RES
/OUT:"C:\USERS\MICHAEL\DESKTOP\CP240\DLGBOX\DEBUG\DLGBOX.EXE" /INCREMENTAL /NOLOGO KERNEL32.LIB USER32.LIB GDI32.LIB WINSPOOL.LIB COMDLG32.LIB ADVAPI32.LIB SHELL32.LIB OLE32.LIB OLEAUT32.LIB UUID.LIB ODBC32.LIB ODBCCP32.LIB /MANIFEST /MANIFESTUAC:"level='asInvoker' uiAccess='false'" /manifest:embed /DEBUG:FASTLINK /PDB:"C:\USERS\MICHAEL\DESKTOP\CP240\DLGBOX\DEBUG\DLGBOX.PDB" /SUBSYSTEM:WINDOWS /TLBID:1 /DYNAMICBASE /NXCOMPAT /IMPLIB:"C:\USERS\MICHAEL\DESKTOP\CP240\DLGBOX\DEBUG\DLGBOX.LIB" /MACHINE:X86 DEBUG\RESOURCE.RESDEBUG\DLGBOX.OBJ
^C:\USERS\MICHAEL\DESKTOP\CP240\MSARGENT_LAB01\DLGBOX\DEBUG\DLGBOX.OBJ|C:\USERS\MICHAEL\DESKTOP\CP240\MSARGENT_LAB01\DLGBOX\DEBUG\RESOURCE.RES
/OUT:"C:\USERS\MICHAEL\DESKTOP\CP240\MSARGENT_LAB01\DEBUG\DLGBOX.EXE" /INCREMENTAL /NOLOGO KERNEL32.LIB USER32.LIB GDI32.LIB WINSPOOL.LIB COMDLG32.LIB ADVAPI32.LIB SHELL32.LIB OLE32.LIB OLEAUT32.LIB UUID.LIB ODBC32.LIB ODBCCP32.LIB /MANIFEST /MANIFESTUAC:"level='asInvoker' uiAccess='false'" /manifest:embed /DEBUG:FASTLINK /PDB:"C:\USERS\MICHAEL\DESKTOP\CP240\MSARGENT_LAB01\DEBUG\DLGBOX.PDB" /SUBSYSTEM:WINDOWS /TLBID:1 /DYNAMICBASE /NXCOMPAT /IMPLIB:"C:\USERS\MICHAEL\DESKTOP\CP240\MSARGENT_LAB01\DEBUG\DLGBOX.LIB" /MACHINE:X86 DEBUG\RESOURCE.RESDEBUG\DLGBOX.OBJ
^C:\USERS\MICHAEL\DESKTOP\CP240\MSARGENT_LABS\MSARGENT_LAB01\DLGBOX\DEBUG\DLGBOX.OBJ|C:\USERS\MICHAEL\DESKTOP\CP240\MSARGENT_LABS\MSARGENT_LAB01\DLGBOX\DEBUG\RESOURCE.RES
/OUT:"C:\USERS\MICHAEL\DESKTOP\CP240\MSARGENT_LABS\MSARGENT_LAB01\DEBUG\DLGBOX.EXE" /INCREMENTAL /NOLOGO KERNEL32.LIB USER32.LIB GDI32.LIB WINSPOOL.LIB COMDLG32.LIB ADVAPI32.LIB SHELL32.LIB OLE32.LIB OLEAUT32.LIB UUID.LIB ODBC32.LIB ODBCCP32.LIB /MANIFEST /MANIFESTUAC:"level='asInvoker' uiAccess='false'" /manifest:embed /DEBUG:FASTLINK /PDB:"C:\USERS\MICHAEL\DESKTOP\CP240\MSARGENT_LABS\MSARGENT_LAB01\DEBUG\DLGBOX.PDB" /SUBSYSTEM:WINDOWS /TLBID:1 /DYNAMICBASE /NXCOMPAT /IMPLIB:"C:\USERS\MICHAEL\DESKTOP\CP240\MSARGENT_LABS\MSARGENT_LAB01\DEBUG\DLGBOX.LIB" /MACHINE:X86 DEBUG\RESOURCE.RESDEBUG\DLGBOX.OBJ
^D:\CP240\MSARGENT_LAB01\DLGBOX\DEBUG\DLGBOX.OBJ|D:\CP240\MSARGENT_LAB01\DLGBOX\DEBUG\RESOURCE.RES
/OUT:"D:\CP240\MSARGENT_LAB01\DEBUG\DLGBOX.EXE" /INCREMENTAL /NOLOGO KERNEL32.LIB USER32.LIB GDI32.LIB WINSPOOL.LIB COMDLG32.LIB ADVAPI32.LIB SHELL32.LIB OLE32.LIB OLEAUT32.LIB UUID.LIB ODBC32.LIB ODBCCP32.LIB /MANIFEST /MANIFESTUAC:"level='asInvoker' uiAccess='false'" /manifest:embed /DEBUG:FASTLINK /PDB:"D:\CP240\MSARGENT_LAB01\DEBUG\DLGBOX.PDB" /SUBSYSTEM:WINDOWS /TLBID:1 /DYNAMICBASE /NXCOMPAT /IMPLIB:"D:\CP240\MSARGENT_LAB01\DEBUG\DLGBOX.LIB" /MACHINE:X86 DEBUG\RESOURCE.RESDEBUG\DLGBOX.OBJ
^T:\MSARGENT\MSARGENT_LAB01\DLGBOX\DEBUG\DLGBOX.OBJ|T:\MSARGENT\MSARGENT_LAB01\DLGBOX\DEBUG\RESOURCE.RES
/OUT:"T:\MSARGENT\MSARGENT_LAB01\DEBUG\DLGBOX.EXE" /INCREMENTAL /NOLOGO KERNEL32.LIB USER32.LIB GDI32.LIB WINSPOOL.LIB COMDLG32.LIB ADVAPI32.LIB SHELL32.LIB OLE32.LIB OLEAUT32.LIB UUID.LIB ODBC32.LIB ODBCCP32.LIB /MANIFEST /MANIFESTUAC:"level='asInvoker' uiAccess='false'" /manifest:embed /DEBUG:FASTLINK /PDB:"T:\MSARGENT\MSARGENT_LAB01\DEBUG\DLGBOX.PDB" /SUBSYSTEM:WINDOWS /TLBID:1 /DYNAMICBASE /NXCOMPAT /IMPLIB:"T:\MSARGENT\MSARGENT_LAB01\DEBUG\DLGBOX.LIB" /MACHINE:X86 DEBUG\RESOURCE.RESDEBUG\DLGBOX.OBJ
^T:\MSARGENT\MSARGENT_LAB02\DLGBOX\DEBUG\DLGBOX.OBJ|T:\MSARGENT\MSARGENT_LAB02\DLGBOX\DEBUG\RESOURCE.RES
/OUT:"T:\MSARGENT\MSARGENT_LAB02\DEBUG\DLGBOX.EXE" /INCREMENTAL /NOLOGO KERNEL32.LIB USER32.LIB GDI32.LIB WINSPOOL.LIB COMDLG32.LIB ADVAPI32.LIB SHELL32.LIB OLE32.LIB OLEAUT32.LIB UUID.LIB ODBC32.LIB ODBCCP32.LIB /MANIFEST /MANIFESTUAC:"level='asInvoker' uiAccess='false'" /manifest:embed /DEBUG:FASTLINK /PDB:"T:\MSARGENT\MSARGENT_LAB02\DEBUG\DLGBOX.PDB" /SUBSYSTEM:WINDOWS /TLBID:1 /DYNAMICBASE /NXCOMPAT /IMPLIB:"T:\MSARGENT\MSARGENT_LAB02\DEBUG\DLGBOX.LIB" /MACHINE:X86 DEBUG\RESOURCE.RESDEBUG\DLGBOX.OBJ
^C:\USERS\NHTI\DESKTOP\MSARGENT_LAB02\DLGBOX\DEBUG\DLGBOX.OBJ|C:\USERS\NHTI\DESKTOP\MSARGENT_LAB02\DLGBOX\DEBUG\RESOURCE.RES
/OUT:"C:\USERS\NHTI\DESKTOP\MSARGENT_LAB02\DEBUG\DLGBOX.EXE" /INCREMENTAL /NOLOGO KERNEL32.LIB USER32.LIB GDI32.LIB WINSPOOL.LIB COMDLG32.LIB ADVAPI32.LIB SHELL32.LIB OLE32.LIB OLEAUT32.LIB UUID.LIB ODBC32.LIB ODBCCP32.LIB /MANIFEST /MANIFESTUAC:"level='asInvoker' uiAccess='false'" /manifest:embed /DEBUG:FASTLINK /PDB:"C:\USERS\NHTI\DESKTOP\MSARGENT_LAB02\DEBUG\DLGBOX.PDB" /SUBSYSTEM:WINDOWS /TLBID:1 /DYNAMICBASE /NXCOMPAT /IMPLIB:"C:\USERS\NHTI\DESKTOP\MSARGENT_LAB02\DEBUG\DLGBOX.LIB" /MACHINE:X86 DEBUG\RESOURCE.RESDEBUG\DLGBOX.OBJ
